*************************************************************************
*****        G A M M A   S P E C T R U M    A N A L Y S I S         *****
*************************************************************************


Filename: C:\GENIE2K\CAMFILES\Milan-Stefanik\Zalesakova\exp01_2022-02-0

Report Generated On             : 2/1/2022    3:21:13 PM

Sample Title                    : Sample title.                          
Sample Description              :                                 
Sample Identification           :                 
Sample Type                     :                 
Sample Geometry                 :                 

Peak Locate Threshold           :  3.00
Peak Locate Range (in channels) :     1 - 16384
Peak Area Range (in channels)   :     1 - 16384
Identification Energy Tolerance :    1.000 keV

Sample Size                     :  1.0000E+00 Unit    

Sample Taken On                 :                       
Acquisition Started             : 2/1/2022   11:49:36 AM

Live Time                       :      305.4 seconds
Real Time                       :      313.2 seconds

Dead Time                       :   2.50 %


              Energy Calibration Used Done On       : 12/13/2019
              Efficiency Calibration Used Done On   : ??????????
              Efficiency ID                         :                        

Peak Analysis Report                    2/1/2022    3:21:13 PM          Page **


*******************************************************************************
*****  S T A N D A R D   V M S   P E A K   A N A L Y S I S   R E P O R T  *****
*******************************************************************************

        Configuration Title:                                         
        Spectrum Title:              Sample title.            
        Peak Analysis Performed on:  2/1/22    3:21:13 PM
        Peak Analysis From Channel:      1    To Channel:    16384
        Peak Search Sensitivity:      3.00    Gaussian Sensitivity: 10.00
        Max Iterations: 10  Fit Singlets: No  Critical Level Test: Yes
        Use Fixed FWHM: No  FWHM Reject:  No  FWHM Reject Ratio:  0.00 
        Peak Fit Engine Name: PANOLIN1        Continuum Type: STEP   

   Pk IT  Energy      Area   Bkgnd  FWHM Channel  Left  PW  Cts/Sec  %err   Fit

    1  0     7.04     2465    2552  1.51   39.87    31  18 8.07E+00   4.2   0.0
    2  0   312.81      552    1237  1.30 1707.87  1696  26 1.81E+00  13.8   0.0
    3  0   320.21      120    1098  0.98 1748.22  1737  21 3.94E-01  53.3   0.0
 M  4  6   509.87      227    1126  1.75 2782.80  2767  38 7.43E-01  77.3   0.9
 m  5  6   511.31     1698    1369  2.43 2790.66  2767  38 5.56E+00  11.2   0.9
    6  0   616.93      412     936  1.20 3366.83  3358  24 1.35E+00  15.7   0.0
 M  7  7   844.07      345     698  1.57 4605.85  4595  41 1.13E+00   8.5   0.9
 m  8  7   847.00     5415     798  1.57 4621.86  4595  41 1.77E+01   1.5   0.9
    9  0   898.21      283     724  0.81 4901.20  4893  26 9.26E-01  20.5   0.0
   10  0  1132.30      234    1072  1.09 6178.18  6162  28 7.67E-01  30.4   0.0
   11  0  1145.60      570    1210  1.10 6250.70  6234  30 1.87E+00  14.0   0.0
   12  0  1293.69      864     952  1.90 7058.53  7044  28 2.83E+00   8.3   0.0
   13  0  1368.80     5780    1241  1.80 7468.27  7452  36 1.89E+01   1.9   0.0
   14  0  1434.23     6332     917  1.80 7825.17  7808  36 2.07E+01   1.7   0.0
   15  0  1524.85     8133     625  1.90 8319.51  8299  41 2.66E+01   1.3   0.0
   16  0  1642.79    14654     670  1.92 8962.88  8943  41 4.80E+01   0.9   0.0
   17  0  1656.49     1111     620  2.82 9037.61  9017  42 3.64E+00   6.4   0.0
   18  0  1732.20      369     388  1.21 9450.59  9437  31 1.21E+00  12.9   0.0
   19  0  1778.84      200     397  1.04 9705.02  9694  23 6.55E-01  20.9   0.0
   20  0  1810.74      745     684  1.80 9879.05  9861  38 2.44E+00   9.2   0.0
   21  0  2113.23      295     192  2.08 11529.1 11513  32 9.66E-01  12.0   0.0
   22  0  2167.44    15528     213  2.14 11824.8 11802  46 5.08E+01   0.8   0.0
   23  0  2243.18      452     190  2.67 12238.0 12218  40 1.48E+00   8.8   0.0
   24  0  2753.95     3142      63  2.41 15024.2 15002  46 1.03E+01   1.9   0.0

M = First peak in a multiplet region
m = Other peak in a multiplet region
F = Fitted singlet

Errors quoted at  1.000 sigma
*************************************************************************
*****        G A M M A   S P E C T R U M    A N A L Y S I S         *****
*************************************************************************


Filename: C:\GENIE2K\CAMFILES\Milan-Stefanik\Zalesakova\exp03_2022-02-2

Report Generated On             : 2/23/2022   3:15:30 PM

Sample Title                    : Sample title.                          
Sample Description              :                                 
Sample Identification           :                 
Sample Type                     :                 
Sample Geometry                 :                 

Peak Locate Threshold           :  3.00
Peak Locate Range (in channels) :     1 - 16384
Peak Area Range (in channels)   :     1 - 16384
Identification Energy Tolerance :    1.000 keV

Sample Size                     :  1.0000E+00 Unit    

Sample Taken On                 : 2/16/2022   2:03:20 PM
Acquisition Started             : 2/23/2022   2:14:11 PM

Live Time                       :      183.2 seconds
Real Time                       :      186.6 seconds

Dead Time                       :   1.80 %


              Energy Calibration Used Done On       : 12/13/2019
              Efficiency Calibration Used Done On   : ??????????
              Efficiency ID                         :                        

Peak Analysis Report                    2/23/2022   3:15:30 PM          Page 78


*******************************************************************************
*****  S T A N D A R D   V M S   P E A K   A N A L Y S I S   R E P O R T  *****
*******************************************************************************

        Configuration Title:                                         
        Spectrum Title:              Sample title.            
        Peak Analysis Performed on:  2/23/22   3:15:30 PM
        Peak Analysis From Channel:      1    To Channel:    16384
        Peak Search Sensitivity:      3.00    Gaussian Sensitivity: 10.00
        Max Iterations: 10  Fit Singlets: No  Critical Level Test: Yes
        Use Fixed FWHM: No  FWHM Reject:  No  FWHM Reject Ratio:  0.00 
        Peak Fit Engine Name: PANOLIN1        Continuum Type: STEP   

   Pk IT  Energy      Area   Bkgnd  FWHM Channel  Left  PW  Cts/Sec  %err   Fit

    1  0     7.00     1052     960  1.89   39.65    31  18 5.74E+00   6.2   0.0
    2  0   320.35      159     373  0.58 1749.00  1740  17 8.66E-01  22.9   0.0
    3  0   412.53      109     254  0.43 2251.80  2244  16 5.96E-01  27.1   0.0
 M  4  8   509.40       79     359  1.33 2780.27  2772  35 4.33E-01  28.1   1.1
 m  5  8   511.52      538     553  2.01 2791.80  2772  35 2.94E+00   6.7   1.1
    6  0   555.79      270     376  0.83 3033.31  3018  26 1.47E+00  16.0   0.0
    7  0   617.10      258     339  1.50 3367.75  3356  24 1.41E+00  15.6   0.0
 M  8  4   844.13      415     344  1.64 4606.17  4595  42 2.26E+00   6.3   1.1
 m  9  4   847.09      941     385  1.64 4622.33  4595  42 5.14E+00   3.8   1.1
   10  0  1014.46      104     292  0.79 5535.36  5526  18 5.68E-01  31.2   0.0
   11  0  1039.29       70     334  0.82 5670.79  5662  19 3.81E-01  49.7   0.0
   12  0  1145.92      167     624  0.45 6252.46  6236  27 9.13E-01  32.2   0.0
   13  0  1294.03      255     347  1.40 7060.42  7048  24 1.39E+00  15.9   0.0
   14  0  1368.99      798     311  1.94 7469.29  7455  30 4.36E+00   6.0   0.0
   15  0  1434.38    15353     381  1.94 7826.02  7808  38 8.38E+01   0.9   0.0
   16  0  1525.04      986     223  1.86 8320.56  8307  29 5.38E+00   4.6   0.0
   17  0  1643.00     4264     167  2.09 8964.05  8944  41 2.33E+01   1.7   0.0
   18  0  1656.47      284     171  2.18 9037.51  9019  37 1.55E+00  12.4   0.0
   19  0  1771.82       32      61  0.66 9666.73  9658  18 1.75E-01  47.3   0.0
   20  0  1779.24     1152     162  1.72 9707.23  9690  36 6.29E+00   3.9   0.0
   21  0  1811.12      131     100  0.82 9881.12  9872  19 7.15E-01  16.5   0.0
   22  0  1836.32       81      67  0.87 10018.6 10010  18 4.40E-01  21.5   0.0
   23  0  2076.78       13      17  0.24 11330.2 11322  18 7.08E-02  64.6   0.0
   24  0  2113.28       61      22  0.45 11529.3 11520  20 3.33E-01  19.3   0.0
   25  0  2167.69     4457      81  2.14 11826.2 11805  43 2.43E+01   1.6   0.0
   26  0  2754.35      362      31  1.46 15026.4 15007  36 1.97E+00   6.4   0.0

M = First peak in a multiplet region
m = Other peak in a multiplet region
F = Fitted singlet

Errors quoted at  1.000 sigma
*************************************************************************
*****        G A M M A   S P E C T R U M    A N A L Y S I S         *****
*************************************************************************


Filename: C:\GENIE2K\CAMFILES\Milan-Stefanik\Zalesakova\exp03_2022-02-2

Report Generated On             : 3/10/2022   9:41:47 AM

Sample Title                    : Sample title.                          
Sample Description              :                                 
Sample Identification           :                 
Sample Type                     :                 
Sample Geometry                 :                 

Peak Locate Threshold           :  3.00
Peak Locate Range (in channels) :     1 - 16384
Peak Area Range (in channels)   :     1 - 16384
Identification Energy Tolerance :    1.000 keV

Sample Size                     :  1.0000E+00 Unit    

Sample Taken On                 : 2/16/2022   2:03:20 PM
Acquisition Started             : 2/23/2022   2:14:11 PM

Live Time                       :      183.2 seconds
Real Time                       :      186.6 seconds

Dead Time                       :   1.80 %


              Energy Calibration Used Done On       : 12/13/2019
              Efficiency Calibration Used Done On   : ??????????
              Efficiency ID                         :                        

Peak Analysis Report                    3/10/2022   9:41:47 AM          Page 78


*******************************************************************************
*****  S T A N D A R D   V M S   P E A K   A N A L Y S I S   R E P O R T  *****
*******************************************************************************

        Configuration Title:                                         
        Spectrum Title:              Sample title.            
        Peak Analysis Performed on:  3/10/22   9:41:47 AM
        Peak Analysis From Channel:      1    To Channel:    16384
        Peak Search Sensitivity:      3.00    Gaussian Sensitivity: 10.00
        Max Iterations: 10  Fit Singlets: No  Critical Level Test: Yes
        Use Fixed FWHM: No  FWHM Reject:  No  FWHM Reject Ratio:  0.00 
        Peak Fit Engine Name: PANOLIN1        Continuum Type: STEP   

   Pk IT  Energy      Area   Bkgnd  FWHM Channel  Left  PW  Cts/Sec  %err   Fit

    1  0     7.00     1052     960  1.89   39.65    31  18 5.74E+00   6.2   0.0
    2  0   320.35      159     373  0.58 1749.00  1740  17 8.66E-01  22.9   0.0
    3  0   412.53      109     254  0.43 2251.80  2244  16 5.96E-01  27.1   0.0
 M  4  8   509.40       79     359  1.33 2780.27  2772  35 4.33E-01  28.1   1.1
 m  5  8   511.52      538     553  2.01 2791.80  2772  35 2.94E+00   6.7   1.1
    6  0   555.79      270     376  0.83 3033.31  3018  26 1.47E+00  16.0   0.0
    7  0   617.10      258     339  1.50 3367.75  3356  24 1.41E+00  15.6   0.0
 M  8  4   844.13      415     344  1.64 4606.17  4595  42 2.26E+00   6.3   1.1
 m  9  4   847.09      941     385  1.64 4622.33  4595  42 5.14E+00   3.8   1.1
   10  0  1014.46      104     292  0.79 5535.36  5526  18 5.68E-01  31.2   0.0
   11  0  1039.29       70     334  0.82 5670.79  5662  19 3.81E-01  49.7   0.0
   12  0  1145.92      167     624  0.45 6252.46  6236  27 9.13E-01  32.2   0.0
   13  0  1294.03      255     347  1.40 7060.42  7048  24 1.39E+00  15.9   0.0
   14  0  1368.99      798     311  1.94 7469.29  7455  30 4.36E+00   6.0   0.0
   15  0  1434.38    15353     381  1.94 7826.02  7808  38 8.38E+01   0.9   0.0
   16  0  1525.04      986     223  1.86 8320.56  8307  29 5.38E+00   4.6   0.0
   17  0  1643.00     4264     167  2.09 8964.05  8944  41 2.33E+01   1.7   0.0
   18  0  1656.47      284     171  2.18 9037.51  9019  37 1.55E+00  12.4   0.0
   19  0  1771.82       32      61  0.66 9666.73  9658  18 1.75E-01  47.3   0.0
   20  0  1779.24     1152     162  1.72 9707.23  9690  36 6.29E+00   3.9   0.0
   21  0  1811.12      131     100  0.82 9881.12  9872  19 7.15E-01  16.5   0.0
   22  0  1836.32       81      67  0.87 10018.6 10010  18 4.40E-01  21.5   0.0
   23  0  2076.78       13      17  0.24 11330.2 11322  18 7.08E-02  64.6   0.0
   24  0  2113.28       61      22  0.45 11529.3 11520  20 3.33E-01  19.3   0.0
   25  0  2167.69     4457      81  2.14 11826.2 11805  43 2.43E+01   1.6   0.0
   26  0  2754.35      362      31  1.46 15026.4 15007  36 1.97E+00   6.4   0.0

M = First peak in a multiplet region
m = Other peak in a multiplet region
F = Fitted singlet

Errors quoted at  1.000 sigma
