*************************************************************************
*****        G A M M A   S P E C T R U M    A N A L Y S I S         *****
*************************************************************************


Filename: C:\GENIE2K\CAMFILES\Milan-Stefanik\Zalesakova\exp02_2022-02-1

Report Generated On             : 3/10/2022   9:30:45 AM

Sample Title                    : UcKalEu_20210708                       
Sample Description              :                                 
Sample Identification           : 1               
Sample Type                     : 0               
Sample Geometry                 : 30              

Peak Locate Threshold           :  3.00
Peak Locate Range (in channels) :     1 -  4096
Peak Area Range (in channels)   :     1 -  4096
Identification Energy Tolerance :    1.000 keV

Sample Size                     :  1.0000E+00 nuclei  

Sample Taken On                 : 2/9/2021    3:15:00 PM
Acquisition Started             : 2/14/2022  11:00:42 AM

Live Time                       :     1438.3 seconds
Real Time                       :     1443.4 seconds

Dead Time                       :   0.36 %


              Energy Calibration Used Done On       : 3/29/2017 
              Efficiency Calibration Used Done On   : 11/1/2011 
              Efficiency ID                         : 4pi MBSS1 858-01       


*******************************************************************************
*****  S T A N D A R D   V M S   P E A K   A N A L Y S I S   R E P O R T  *****
*******************************************************************************

        Configuration Title:                                         
        Spectrum Title:              UcKalEu_20210708         
        Peak Analysis Performed on:  3/10/22   9:30:45 AM
        Peak Analysis From Channel:      1    To Channel:     8192
        Peak Search Sensitivity:      3.00    Gaussian Sensitivity: 10.00
        Max Iterations: 10  Fit Singlets: No  Critical Level Test: Yes
        Use Fixed FWHM: No  FWHM Reject:  No  FWHM Reject Ratio:  0.00 
        Peak Fit Engine Name: PANOLIN1        Continuum Type: STEP   

   Pk IT  Energy      Area   Bkgnd  FWHM Channel  Left  PW  Cts/Sec  %err   Fit

 M  1 15    25.38      345     144  0.63  144.20   140  19 2.40E-01   6.5   4.2
 m  2 15    26.25      189     350  0.64  149.12   140  19 1.31E-01  11.0   4.2
    3  0   313.14      484     675  1.09 1771.56  1756  28 3.36E-01  12.3   0.0
 M  4 32   509.86       52     382  1.00 2884.06  2877  35 3.64E-02  35.6   0.9
 m  5 32   511.71      272     692  1.73 2894.52  2877  35 1.89E-01  10.9   0.9
    6  0   846.69     7700     469  1.64 4788.94  4770  36 5.35E+00   1.3   0.0
    7  0  1293.66      151     327  0.73 7316.66  7303  23 1.05E-01  24.9   0.0
    8  0  1368.93     2565     395  1.93 7742.34  7722  40 1.78E+00   2.7   0.0

M = First peak in a multiplet region
m = Other peak in a multiplet region
F = Fitted singlet

Errors quoted at  1.000 sigma
