*************************************************************************
*****        G A M M A   S P E C T R U M    A N A L Y S I S         *****
*************************************************************************


Filename: C:\GENIE2K\CAMFILES\Milan-Stefanik\Zalesakova\exp01_2022-02-0

Report Generated On             : 2/1/2022    3:21:39 PM

Sample Title                    : Sample title.                          
Sample Description              :                                 
Sample Identification           :                 
Sample Type                     :                 
Sample Geometry                 :                 

Peak Locate Threshold           :  3.00
Peak Locate Range (in channels) :     1 - 16384
Peak Area Range (in channels)   :     1 - 16384
Identification Energy Tolerance :    1.000 keV

Sample Size                     :  1.0000E+00 Unit    

Sample Taken On                 :                       
Acquisition Started             : 2/1/2022   11:24:26 AM

Live Time                       :     1209.8 seconds
Real Time                       :     1226.0 seconds

Dead Time                       :   1.32 %


              Energy Calibration Used Done On       : 12/13/2019
              Efficiency Calibration Used Done On   : ??????????
              Efficiency ID                         :                        

Peak Analysis Report                    2/1/2022    3:21:39 PM          Page **


*******************************************************************************
*****  S T A N D A R D   V M S   P E A K   A N A L Y S I S   R E P O R T  *****
*******************************************************************************

        Configuration Title:                                         
        Spectrum Title:              Sample title.            
        Peak Analysis Performed on:  2/1/22    3:21:39 PM
        Peak Analysis From Channel:      1    To Channel:    16384
        Peak Search Sensitivity:      3.00    Gaussian Sensitivity: 10.00
        Max Iterations: 10  Fit Singlets: No  Critical Level Test: Yes
        Use Fixed FWHM: No  FWHM Reject:  No  FWHM Reject Ratio:  0.00 
        Peak Fit Engine Name: PANOLIN1        Continuum Type: STEP   

   Pk IT  Energy      Area   Bkgnd  FWHM Channel  Left  PW  Cts/Sec  %err   Fit

    1  0   127.59      811    3969  0.97  697.48   689  19 6.70E-01  14.7   0.0
    2  0   312.84     1576    3011  1.01 1707.99  1695  25 1.30E+00   7.5   0.0
    3  0   502.78      223    1560  0.90 2744.12  2737  16 1.85E-01  31.4   0.0
    4  0   511.13     3238    3147  2.52 2789.70  2774  31 2.68E+00   4.2   0.0
    5  0   789.12      104     901  0.38 4306.11  4300  17 8.60E-02  52.2   0.0
    6  0   846.98    61362    2045  1.60 4621.77  4604  35 5.07E+01   0.4   0.0
    7  0  1145.72      722    1959  0.81 6251.36  6233  34 5.97E-01  14.5   0.0
    8  0  1293.89      611    2048  0.66 7059.61  7048  27 5.05E-01  16.0   0.0
    9  0  1368.78     8898    1894  1.75 7468.16  7451  37 7.35E+00   1.6   0.0
   10  0  1524.84    30247    1174  1.94 8319.48  8299  41 2.50E+01   0.6   0.0
   11  0  1642.77    13835     950  1.95 8962.78  8942  41 1.14E+01   1.0   0.0
 M 12 13  1655.04      239     794  2.31 9029.70  9015  42 1.98E-01  41.2   0.9
 m 13 13  1656.79      697     886  2.31 9039.27  9015  42 5.76E-01  15.8   0.9
   14  0  1732.02      434     597  1.46 9449.63  9432  30 3.59E-01  13.2   0.0
   15  0  1810.77     8049    1075  1.96 9879.21  9858  43 6.65E+00   1.5   0.0
   16  0  2113.11     3764     418  2.04 11528.4 11510  40 3.11E+00   2.1   0.0
   17  0  2167.45    14882     393  2.32 11824.8 11802  45 1.23E+01   0.9   0.0
   18  0  2242.95      809     298  2.96 12236.7 12215  45 6.69E-01   6.5   0.0
   19  0  2522.76      246     176  1.17 13763.1 13750  30 2.03E-01  13.4   0.0
   20  0  2657.32      449     121  2.42 14497.1 14478  36 3.71E-01   7.4   0.0
   21  0  2753.89     4758      81  2.34 15023.9 15002  46 3.93E+00   1.5   0.0
   22  0  2959.49      197      67  1.62 16145.4 16132  31 1.63E-01  11.6   0.0

M = First peak in a multiplet region
m = Other peak in a multiplet region
F = Fitted singlet

Errors quoted at  1.000 sigma
*************************************************************************
*****        G A M M A   S P E C T R U M    A N A L Y S I S         *****
*************************************************************************


Filename: C:\GENIE2K\CAMFILES\Milan-Stefanik\Zalesakova\exp02_2022-02-1

Report Generated On             : 2/14/2022   2:45:09 PM

Sample Title                    : Sample title.                          
Sample Description              :                                 
Sample Identification           :                 
Sample Type                     :                 
Sample Geometry                 :                 

Peak Locate Threshold           :  3.00
Peak Locate Range (in channels) :     1 - 16384
Peak Area Range (in channels)   :     1 - 16384
Identification Energy Tolerance :    1.000 keV

Sample Size                     :  1.0000E+00 Unit    

Sample Taken On                 :                       
Acquisition Started             : 2/14/2022  10:24:06 AM

Live Time                       :      212.8 seconds
Real Time                       :      214.8 seconds

Dead Time                       :   0.95 %


              Energy Calibration Used Done On       : 12/13/2019
              Efficiency Calibration Used Done On   : ??????????
              Efficiency ID                         :                        

Peak Analysis Report                    2/14/2022   2:45:09 PM          Page **


*******************************************************************************
*****  S T A N D A R D   V M S   P E A K   A N A L Y S I S   R E P O R T  *****
*******************************************************************************

        Configuration Title:                                         
        Spectrum Title:              Sample title.            
        Peak Analysis Performed on:  2/14/22   2:45:09 PM
        Peak Analysis From Channel:      1    To Channel:    16384
        Peak Search Sensitivity:      3.00    Gaussian Sensitivity: 10.00
        Max Iterations: 10  Fit Singlets: No  Critical Level Test: Yes
        Use Fixed FWHM: No  FWHM Reject:  No  FWHM Reject Ratio:  0.00 
        Peak Fit Engine Name: PANOLIN1        Continuum Type: STEP   

   Pk IT  Energy      Area   Bkgnd  FWHM Channel  Left  PW  Cts/Sec  %err   Fit

    1  0   312.74      149     281  0.81 1707.47  1700  19 7.00E-01  22.3   0.0
    2  0   410.44       30     112  0.79 2240.41  2235  12 1.42E-01  58.7   0.0
    3  0   511.37      283     371  1.60 2790.97  2776  27 1.33E+00  15.4   0.0
    4  0   760.11       35      74  1.26 4147.85  4141  15 1.67E-01  44.4   0.0
    5  0   847.05     6368     353  1.59 4622.14  4607  32 2.99E+01   1.4   0.0
    6  0  1014.41       45     113  0.33 5535.07  5528  16 2.12E-01  43.8   0.0
    7  0  1028.81       32      80  0.21 5613.62  5606  16 1.50E-01  51.7   0.0
    8  0  1145.72      114     172  0.31 6251.38  6241  26 5.38E-01  25.4   0.0
    9  0  1293.77      261     151  2.00 7058.96  7049  24 1.22E+00  11.3   0.0
   10  0  1368.89      742     229  1.55 7468.76  7453  31 3.49E+00   5.8   0.0
   11  0  1524.89     2650     118  1.63 8319.75  8304  34 1.25E+01   2.2   0.0
   12  0  1642.92     2619     175  1.79 8963.61  8945  36 1.23E+01   2.3   0.0
   13  0  1656.97      199      96  0.73 9040.22  9024  30 9.36E-01  12.9   0.0
   14  0  1731.98       58      43  0.23 9449.43  9441  18 2.73E-01  24.2   0.0
   15  0  1810.96      855     130  1.76 9880.26  9863  37 4.02E+00   4.7   0.0
   16  0  2113.18      435      21  2.02 11528.8 11512  34 2.04E+00   5.4   0.0
   17  0  2167.61     2719      51  2.06 11825.7 11806  41 1.28E+01   2.0   0.0
   18  0  2242.92       33      30  0.27 12236.6 12227  20 1.55E-01  35.6   0.0
   19  0  2753.97      438      13  1.88 15024.3 15009  35 2.06E+00   5.1   0.0

M = First peak in a multiplet region
m = Other peak in a multiplet region
F = Fitted singlet

Errors quoted at  1.000 sigma
*************************************************************************
*****        G A M M A   S P E C T R U M    A N A L Y S I S         *****
*************************************************************************


Filename: C:\GENIE2K\CAMFILES\Milan-Stefanik\Zalesakova\exp02_2022-02-1

Report Generated On             : 3/10/2022   9:46:01 AM

Sample Title                    : Sample title.                          
Sample Description              :                                 
Sample Identification           :                 
Sample Type                     :                 
Sample Geometry                 :                 

Peak Locate Threshold           :  3.00
Peak Locate Range (in channels) :     1 - 16384
Peak Area Range (in channels)   :     1 - 16384
Identification Energy Tolerance :    1.000 keV

Sample Size                     :  1.0000E+00 Unit    

Sample Taken On                 :                       
Acquisition Started             : 2/14/2022  10:24:06 AM

Live Time                       :      212.8 seconds
Real Time                       :      214.8 seconds

Dead Time                       :   0.95 %


              Energy Calibration Used Done On       : 12/13/2019
              Efficiency Calibration Used Done On   : ??????????
              Efficiency ID                         :                        

Peak Analysis Report                    3/10/2022   9:46:01 AM          Page **


*******************************************************************************
*****  S T A N D A R D   V M S   P E A K   A N A L Y S I S   R E P O R T  *****
*******************************************************************************

        Configuration Title:                                         
        Spectrum Title:              Sample title.            
        Peak Analysis Performed on:  3/10/22   9:46:01 AM
        Peak Analysis From Channel:      1    To Channel:    16384
        Peak Search Sensitivity:      3.00    Gaussian Sensitivity: 10.00
        Max Iterations: 10  Fit Singlets: No  Critical Level Test: Yes
        Use Fixed FWHM: No  FWHM Reject:  No  FWHM Reject Ratio:  0.00 
        Peak Fit Engine Name: PANOLIN1        Continuum Type: STEP   

   Pk IT  Energy      Area   Bkgnd  FWHM Channel  Left  PW  Cts/Sec  %err   Fit

    1  0   312.74      149     281  0.81 1707.47  1700  19 7.00E-01  22.3   0.0
    2  0   410.44       30     112  0.79 2240.41  2235  12 1.42E-01  58.7   0.0
    3  0   511.37      283     371  1.60 2790.97  2776  27 1.33E+00  15.4   0.0
    4  0   760.11       35      74  1.26 4147.85  4141  15 1.67E-01  44.4   0.0
    5  0   847.05     6368     353  1.59 4622.14  4607  32 2.99E+01   1.4   0.0
    6  0  1014.41       45     113  0.33 5535.07  5528  16 2.12E-01  43.8   0.0
    7  0  1028.81       32      80  0.21 5613.62  5606  16 1.50E-01  51.7   0.0
    8  0  1145.72      114     172  0.31 6251.38  6241  26 5.38E-01  25.4   0.0
    9  0  1293.77      261     151  2.00 7058.96  7049  24 1.22E+00  11.3   0.0
   10  0  1368.89      742     229  1.55 7468.76  7453  31 3.49E+00   5.8   0.0
   11  0  1524.89     2650     118  1.63 8319.75  8304  34 1.25E+01   2.2   0.0
   12  0  1642.92     2619     175  1.79 8963.61  8945  36 1.23E+01   2.3   0.0
   13  0  1656.97      199      96  0.73 9040.22  9024  30 9.36E-01  12.9   0.0
   14  0  1731.98       58      43  0.23 9449.43  9441  18 2.73E-01  24.2   0.0
   15  0  1810.96      855     130  1.76 9880.26  9863  37 4.02E+00   4.7   0.0
   16  0  2113.18      435      21  2.02 11528.8 11512  34 2.04E+00   5.4   0.0
   17  0  2167.61     2719      51  2.06 11825.7 11806  41 1.28E+01   2.0   0.0
   18  0  2242.92       33      30  0.27 12236.6 12227  20 1.55E-01  35.6   0.0
   19  0  2753.97      438      13  1.88 15024.3 15009  35 2.06E+00   5.1   0.0

M = First peak in a multiplet region
m = Other peak in a multiplet region
F = Fitted singlet

Errors quoted at  1.000 sigma
