*************************************************************************
*****        G A M M A   S P E C T R U M    A N A L Y S I S         *****
*************************************************************************


Filename: C:\GENIE2K\CAMFILES\Milan-Stefanik\Zalesakova\exp01_2022-02-0

Report Generated On             : 2/1/2022    3:22:19 PM

Sample Title                    : Sample title.                          
Sample Description              :                                 
Sample Identification           :                 
Sample Type                     :                 
Sample Geometry                 :                 

Peak Locate Threshold           :  3.00
Peak Locate Range (in channels) :     1 - 16384
Peak Area Range (in channels)   :     1 - 16384
Identification Energy Tolerance :    1.000 keV

Sample Size                     :  1.0000E+00 Unit    

Sample Taken On                 :                       
Acquisition Started             : 2/1/2022    1:05:10 PM

Live Time                       :     2093.0 seconds
Real Time                       :     2108.8 seconds

Dead Time                       :   0.75 %


              Energy Calibration Used Done On       : 12/13/2019
              Efficiency Calibration Used Done On   : ??????????
              Efficiency ID                         :                        

Peak Analysis Report                    2/1/2022    3:22:19 PM          Page **


*******************************************************************************
*****  S T A N D A R D   V M S   P E A K   A N A L Y S I S   R E P O R T  *****
*******************************************************************************

        Configuration Title:                                         
        Spectrum Title:              Sample title.            
        Peak Analysis Performed on:  2/1/22    3:22:19 PM
        Peak Analysis From Channel:      1    To Channel:    16384
        Peak Search Sensitivity:      3.00    Gaussian Sensitivity: 10.00
        Max Iterations: 10  Fit Singlets: No  Critical Level Test: Yes
        Use Fixed FWHM: No  FWHM Reject:  No  FWHM Reject Ratio:  0.00 
        Peak Fit Engine Name: PANOLIN1        Continuum Type: STEP   

   Pk IT  Energy      Area   Bkgnd  FWHM Channel  Left  PW  Cts/Sec  %err   Fit

    1  0   127.55      901    4378  1.17  697.26   688  21 4.30E-01  14.4   0.0
    2  0   312.84     2179    2640  1.25 1707.99  1698  21 1.04E+00   5.0   0.0
    3  0   438.83      192    2083  1.12 2395.27  2384  21 9.17E-02  45.8   0.0
    4  0   502.70      297    1508  0.94 2743.71  2735  16 1.42E-01  23.4   0.0
    5  0   511.19     3970    3066  2.58 2789.99  2775  30 1.90E+00   3.4   0.0
    6  0   788.98      154    1336  0.98 4305.37  4288  27 7.37E-02  50.2   0.0
    7  0   846.99    62736    1743  1.60 4621.80  4605  34 3.00E+01   0.4   0.0
 M  8  8  1013.57      379    1680  1.94 5530.49  5514  37 1.81E-01  22.9   1.0
 m  9  8  1015.25      124    1422  1.94 5539.68  5514  37 5.92E-02  59.9   1.0
   10  0  1091.33      319    1519  0.44 5954.69  5938  28 1.52E-01  26.5   0.0
   11  0  1293.97      310    1612  0.54 7060.06  7050  21 1.48E-01  25.3   0.0
   12  0  1340.59      102     772  0.36 7314.40  7306  18 4.86E-02  50.4   0.0
   13  0  1368.81    13562    1485  1.80 7468.34  7453  35 6.48E+00   1.1   0.0
   14  0  1524.85    44784     979  1.92 8319.53  8299  41 2.14E+01   0.5   0.0
   15  0  1602.29      218     539  0.92 8741.93  8726  31 1.04E-01  24.5   0.0
   16  0  1642.81     3006     594  1.90 8962.96  8945  36 1.44E+00   2.6   0.0
   17  0  1656.68      194     354  0.60 9038.64  9027  24 9.29E-02  20.8   0.0
   18  0  1702.78       71     195  0.79 9290.12  9282  20 3.38E-02  39.0   0.0
   19  0  1732.16      687     355  1.85 9450.40  9436  32 3.28E-01   7.2   0.0
   20  0  1810.80     8457     595  1.97 9879.37  9859  42 4.04E+00   1.3   0.0
   21  0  2113.13     3695     416  2.18 11528.5 11509  42 1.77E+00   2.1   0.0
   22  0  2167.39     3267     263  2.10 11824.5 11805  39 1.56E+00   2.1   0.0
   23  0  2242.98     1045     380  2.29 12236.9 12214  46 5.00E-01   5.7   0.0
   24  0  2394.08       56     149  1.35 13061.1 13052  20 2.70E-02  43.0   0.0
   25  0  2522.78      258     208  0.52 13763.2 13753  25 1.23E-01  13.0   0.0
   26  0  2657.36      447     144  1.29 14497.3 14480  35 2.13E-01   7.8   0.0
   27  0  2753.95     7317      92  2.36 15024.2 15000  49 3.50E+00   1.2   0.0
   28  0  2947.85       28      16  0.20 16081.9 16049  43 1.33E-02  41.3   0.0
   29  0  2959.49      199      39  0.89 16145.5 16132  28 9.52E-02   9.7   0.0

M = First peak in a multiplet region
m = Other peak in a multiplet region
F = Fitted singlet

Errors quoted at  1.000 sigma
*************************************************************************
*****        G A M M A   S P E C T R U M    A N A L Y S I S         *****
*************************************************************************


Filename: C:\GENIE2K\CAMFILES\Milan-Stefanik\Zalesakova\exp02_2022-02-1

Report Generated On             : 2/14/2022   2:45:47 PM

Sample Title                    : Sample title.                          
Sample Description              :                                 
Sample Identification           :                 
Sample Type                     :                 
Sample Geometry                 :                 

Peak Locate Threshold           :  3.00
Peak Locate Range (in channels) :     1 - 16384
Peak Area Range (in channels)   :     1 - 16384
Identification Energy Tolerance :    1.000 keV

Sample Size                     :  1.0000E+00 Unit    

Sample Taken On                 :                       
Acquisition Started             : 2/14/2022  11:02:43 AM

Live Time                       :     1396.4 seconds
Real Time                       :     1405.0 seconds

Dead Time                       :   0.61 %


              Energy Calibration Used Done On       : 12/13/2019
              Efficiency Calibration Used Done On   : ??????????
              Efficiency ID                         :                        

Peak Analysis Report                    2/14/2022   2:45:47 PM          Page **


*******************************************************************************
*****  S T A N D A R D   V M S   P E A K   A N A L Y S I S   R E P O R T  *****
*******************************************************************************

        Configuration Title:                                         
        Spectrum Title:              Sample title.            
        Peak Analysis Performed on:  2/14/22   2:45:47 PM
        Peak Analysis From Channel:      1    To Channel:    16384
        Peak Search Sensitivity:      3.00    Gaussian Sensitivity: 10.00
        Max Iterations: 10  Fit Singlets: No  Critical Level Test: Yes
        Use Fixed FWHM: No  FWHM Reject:  No  FWHM Reject Ratio:  0.00 
        Peak Fit Engine Name: PANOLIN1        Continuum Type: STEP   

   Pk IT  Energy      Area   Bkgnd  FWHM Channel  Left  PW  Cts/Sec  %err   Fit

    1  0     6.70     2444    2587  1.30   38.01    29  18 1.75E+00   4.3   0.0
    2  0   127.64      388    1516  0.79  697.77   689  14 2.78E-01  17.4   0.0
    3  0   312.86      902    1580  1.24 1708.14  1697  25 6.46E-01   9.6   0.0
 M  4  7   509.86      243    1464  1.72 2782.77  2770  36 1.74E-01  60.2   1.0
 m  5  7   511.39     1496    1923  2.40 2791.11  2770  36 1.07E+00  10.9   1.0
 M  6 13   847.05    32717     713  1.56 4622.15  4605  37 2.34E+01   0.9   0.8
 m  7 13   848.40      263     657  1.56 4629.46  4605  37 1.88E-01  89.6   0.8
    8  0  1131.92       92     551  0.28 6176.08  6167  18 6.60E-02  47.3   0.0
    9  0  1145.66      352     806  1.46 6251.02  6238  25 2.52E-01  17.2   0.0
   10  0  1293.80      384    1078  0.77 7059.16  7044  29 2.75E-01  19.1   0.0
   11  0  1368.91     5006     905  1.93 7468.85  7451  37 3.58E+00   2.0   0.0
   12  0  1524.95    16173     706  1.90 8320.09  8300  41 1.16E+01   0.9   0.0
   13  0  1642.92     6653     493  1.83 8963.60  8944  39 4.76E+00   1.5   0.0
   14  0  1656.56      514     415  1.92 9037.97  9019  39 3.68E-01  10.6   0.0
   15  0  1732.10      241     235  1.56 9450.04  9438  24 1.73E-01  14.3   0.0
   16  0  1810.97     4344     493  1.93 9880.30  9859  43 3.11E+00   2.0   0.0
   17  0  2113.27     1941     176  2.16 11529.3 11510  39 1.39E+00   2.8   0.0
   18  0  2167.58     7123     163  2.24 11825.6 11803  45 5.10E+00   1.3   0.0
   19  0  2243.13      452      88  2.70 12237.7 12220  40 3.24E-01   6.9   0.0
   20  0  2298.86       25      50  0.49 12541.7 12532  20 1.79E-02  56.7   0.0
   21  0  2523.08      108     110  1.52 13764.8 13753  25 7.76E-02  22.3   0.0
   22  0  2657.41      258      37  0.46 14497.6 14485  29 1.85E-01   8.0   0.0
   23  0  2754.17     2669      48  2.28 15025.4 15005  43 1.91E+00   2.0   0.0
   24  0  2960.10       99      31  0.49 16148.8 16138  24 7.10E-02  15.0   0.0

M = First peak in a multiplet region
m = Other peak in a multiplet region
F = Fitted singlet

Errors quoted at  1.000 sigma
*************************************************************************
*****        G A M M A   S P E C T R U M    A N A L Y S I S         *****
*************************************************************************


Filename: C:\GENIE2K\CAMFILES\Milan-Stefanik\Zalesakova\exp02_2022-02-1

Report Generated On             : 3/10/2022   9:49:05 AM

Sample Title                    : Sample title.                          
Sample Description              :                                 
Sample Identification           :                 
Sample Type                     :                 
Sample Geometry                 :                 

Peak Locate Threshold           :  3.00
Peak Locate Range (in channels) :     1 - 16384
Peak Area Range (in channels)   :     1 - 16384
Identification Energy Tolerance :    1.000 keV

Sample Size                     :  1.0000E+00 Unit    

Sample Taken On                 :                       
Acquisition Started             : 2/14/2022  11:02:43 AM

Live Time                       :     1396.4 seconds
Real Time                       :     1405.0 seconds

Dead Time                       :   0.61 %


              Energy Calibration Used Done On       : 12/13/2019
              Efficiency Calibration Used Done On   : ??????????
              Efficiency ID                         :                        

Peak Analysis Report                    3/10/2022   9:49:05 AM          Page **


*******************************************************************************
*****  S T A N D A R D   V M S   P E A K   A N A L Y S I S   R E P O R T  *****
*******************************************************************************

        Configuration Title:                                         
        Spectrum Title:              Sample title.            
        Peak Analysis Performed on:  3/10/22   9:49:05 AM
        Peak Analysis From Channel:      1    To Channel:    16384
        Peak Search Sensitivity:      3.00    Gaussian Sensitivity: 10.00
        Max Iterations: 10  Fit Singlets: No  Critical Level Test: Yes
        Use Fixed FWHM: No  FWHM Reject:  No  FWHM Reject Ratio:  0.00 
        Peak Fit Engine Name: PANOLIN1        Continuum Type: STEP   

   Pk IT  Energy      Area   Bkgnd  FWHM Channel  Left  PW  Cts/Sec  %err   Fit

    1  0     6.70     2444    2587  1.30   38.01    29  18 1.75E+00   4.3   0.0
    2  0   127.64      388    1516  0.79  697.77   689  14 2.78E-01  17.4   0.0
    3  0   312.86      902    1580  1.24 1708.14  1697  25 6.46E-01   9.6   0.0
 M  4  7   509.86      243    1464  1.72 2782.77  2770  36 1.74E-01  60.2   1.0
 m  5  7   511.39     1496    1923  2.40 2791.11  2770  36 1.07E+00  10.9   1.0
 M  6 13   847.05    32717     713  1.56 4622.15  4605  37 2.34E+01   0.9   0.8
 m  7 13   848.40      263     657  1.56 4629.46  4605  37 1.88E-01  89.6   0.8
    8  0  1131.92       92     551  0.28 6176.08  6167  18 6.60E-02  47.3   0.0
    9  0  1145.66      352     806  1.46 6251.02  6238  25 2.52E-01  17.2   0.0
   10  0  1293.80      384    1078  0.77 7059.16  7044  29 2.75E-01  19.1   0.0
   11  0  1368.91     5006     905  1.93 7468.85  7451  37 3.58E+00   2.0   0.0
   12  0  1524.95    16173     706  1.90 8320.09  8300  41 1.16E+01   0.9   0.0
   13  0  1642.92     6653     493  1.83 8963.60  8944  39 4.76E+00   1.5   0.0
   14  0  1656.56      514     415  1.92 9037.97  9019  39 3.68E-01  10.6   0.0
   15  0  1732.10      241     235  1.56 9450.04  9438  24 1.73E-01  14.3   0.0
   16  0  1810.97     4344     493  1.93 9880.30  9859  43 3.11E+00   2.0   0.0
   17  0  2113.27     1941     176  2.16 11529.3 11510  39 1.39E+00   2.8   0.0
   18  0  2167.58     7123     163  2.24 11825.6 11803  45 5.10E+00   1.3   0.0
   19  0  2243.13      452      88  2.70 12237.7 12220  40 3.24E-01   6.9   0.0
   20  0  2298.86       25      50  0.49 12541.7 12532  20 1.79E-02  56.7   0.0
   21  0  2523.08      108     110  1.52 13764.8 13753  25 7.76E-02  22.3   0.0
   22  0  2657.41      258      37  0.46 14497.6 14485  29 1.85E-01   8.0   0.0
   23  0  2754.17     2669      48  2.28 15025.4 15005  43 1.91E+00   2.0   0.0
   24  0  2960.10       99      31  0.49 16148.8 16138  24 7.10E-02  15.0   0.0

M = First peak in a multiplet region
m = Other peak in a multiplet region
F = Fitted singlet

Errors quoted at  1.000 sigma
