*************************************************************************
*****        G A M M A   S P E C T R U M    A N A L Y S I S         *****
*************************************************************************


Filename: C:\GENIE2K\CAMFILES\Milan-Stefanik\Zalesakova\Kalibracia\p40m

Report Generated On             : 11/23/2021  1:15:06 PM

Sample Title                    : Sample title.                          
Sample Description              :                                 
Sample Identification           :                 
Sample Type                     :                 
Sample Geometry                 :                 

Peak Locate Threshold           :  3.00
Peak Locate Range (in channels) :     1 - 16384
Peak Area Range (in channels)   :     1 - 16384
Identification Energy Tolerance :    1.000 keV

Sample Size                     :  1.0000E+00 Unit    

Sample Taken On                 :                       
Acquisition Started             : 11/23/2021 11:26:43 AM

Live Time                       :      502.4 seconds
Real Time                       :      626.3 seconds

Dead Time                       :  19.77 %


              Energy Calibration Used Done On       : 11/23/2021
              Efficiency Calibration Used Done On   : ??????????
              Efficiency ID                         :                        

Peak Analysis Report                    11/23/2021  1:15:06 PM          Page **


*******************************************************************************
*****  S T A N D A R D   V M S   P E A K   A N A L Y S I S   R E P O R T  *****
*******************************************************************************

        Configuration Title:                                         
        Spectrum Title:              Sample title.            
        Peak Analysis Performed on:  11/23/21  1:15:06 PM
        Peak Analysis From Channel:      1    To Channel:    16384
        Peak Search Sensitivity:      3.00    Gaussian Sensitivity: 10.00
        Max Iterations: 10  Fit Singlets: No  Critical Level Test: Yes
        Use Fixed FWHM: No  FWHM Reject:  No  FWHM Reject Ratio:  0.00 
        Peak Fit Engine Name: PANOLIN1        Continuum Type: STEP   

   Pk IT  Energy      Area   Bkgnd  FWHM Channel  Left  PW  Cts/Sec  %err   Fit

    1  0    36.35     1192   27994  0.42  199.77   196  14 2.37E+00  23.5   0.0
 M  2 19   657.97      682   10191  1.39 3590.68  3578  85 1.36E+00  13.3   1.6
 m  3 19   659.74     2493   10385  1.39 3600.37  3578  85 4.96E+00   8.2   1.6
 m  4 19   661.74  1989611   11534  1.39 3611.29  3578  85 3.96E+03   0.1   1.6
 m  5 19   663.07    29300   11899  1.39 3618.51  3578  85 5.83E+01   4.6   1.6
 m  6 19   664.78     5133   12951  1.39 3627.85  3578  85 1.02E+01   3.2   1.6
 m  7 19   666.31     2811   12977  1.40 3636.21  3578  85 5.59E+00   4.8   1.6
 m  8 19   668.03     1546   12446  1.40 3645.55  3578  85 3.08E+00   6.9   1.6
 M  9 11  1321.80      205     107  1.74 7211.91  7199  40 4.08E-01  46.3   1.0
 m 10 11  1323.25     3140     104  1.74 7219.78  7199  40 6.25E+00   3.6   1.0

M = First peak in a multiplet region
m = Other peak in a multiplet region
F = Fitted singlet

Errors quoted at  1.000 sigma
