*************************************************************************
*****        G A M M A   S P E C T R U M    A N A L Y S I S         *****
*************************************************************************


Filename: C:\GENIE2K\CAMFILES\Milan-Stefanik\Zalesakova\Kalibracia\p40m

Report Generated On             : 11/23/2021  1:15:24 PM

Sample Title                    : Sample title.                          
Sample Description              :                                 
Sample Identification           :                 
Sample Type                     :                 
Sample Geometry                 :                 

Peak Locate Threshold           :  3.00
Peak Locate Range (in channels) :     1 - 16384
Peak Area Range (in channels)   :     1 - 16384
Identification Energy Tolerance :    1.000 keV

Sample Size                     :  1.0000E+00 Unit    

Sample Taken On                 :                       
Acquisition Started             : 11/23/2021 11:38:35 AM

Live Time                       :      608.7 seconds
Real Time                       :      626.5 seconds

Dead Time                       :   2.85 %


              Energy Calibration Used Done On       : 11/23/2021
              Efficiency Calibration Used Done On   : ??????????
              Efficiency ID                         :                        


*******************************************************************************
*****  S T A N D A R D   V M S   P E A K   A N A L Y S I S   R E P O R T  *****
*******************************************************************************

        Configuration Title:                                         
        Spectrum Title:              Sample title.            
        Peak Analysis Performed on:  11/23/21  1:15:24 PM
        Peak Analysis From Channel:      1    To Channel:    16384
        Peak Search Sensitivity:      3.00    Gaussian Sensitivity: 10.00
        Max Iterations: 10  Fit Singlets: No  Critical Level Test: Yes
        Use Fixed FWHM: No  FWHM Reject:  No  FWHM Reject Ratio:  0.00 
        Peak Fit Engine Name: PANOLIN1        Continuum Type: STEP   

   Pk IT  Energy      Area   Bkgnd  FWHM Channel  Left  PW  Cts/Sec  %err   Fit

    1  0   510.91      893    6598  1.76 2788.51  2773  31 1.47E+00  20.4   0.0
 M  2 13   834.97   269672     920  1.49 4556.21  4539  43 4.43E+02   0.3   1.8
 m  3 13   836.31     1330     560  1.49 4563.51  4539  43 2.19E+00  32.4   1.8
    4  0  1274.48      226       3  1.11 6953.77  6943  24 3.71E-01   6.9   0.0
    5  0  1669.47       52       2  0.28 9108.44  9100  19 8.52E-02  14.8   0.0

M = First peak in a multiplet region
m = Other peak in a multiplet region
F = Fitted singlet

Errors quoted at  1.000 sigma
