898.11	0.007738514	9.59106E-05
1835.91	0.004372756	5.95159E-05
122.03	0.032069209	0.00025989
136.45	0.032479294	0.000386818
661.74	0.010213302	0.000107117
834.97	0.008373199	4.89454E-05
1173.28	0.006438258	0.000110248
1332.55	0.005853172	9.97154E-05
53.06	0.00844097	0.000260457
80.89	0.024233427	0.000220594
302.81	0.018510127	0.000102621
356.01	0.01643673	7.60333E-05
383.87	0.016090306	8.99948E-05
79.54	0.025458889	0.00064178
160.6	0.030027371	0.000790957
223.22	0.024186858	0.000970805
276.35	0.019782286	0.000119437
186.2	0.026757359	0.000348238
241.98	0.022507068	0.000158162
295.19	0.018949494	7.6697E-05
351.94	0.016260103	6.58118E-05
609.41	0.009994143	7.0231E-05
665.55	0.009294785	0.000297489
768.48	0.00848908	0.000118963
934.2	0.007109864	0.000163586
1120.4	0.006377976	5.11758E-05
1238.19	0.006021996	8.439E-05
1377.73	0.005913333	0.000112413
1408.04	0.005144233	0.000164646
1509.24	0.00514252	0.000195442
1729.57	0.005024513	0.000110583
1764.46	0.004654017	3.7343E-05
2203.94	0.003796137	6.07835E-05
786.03	0.008445936	0.000430774
806.31	0.008225435	0.000370179
1155.3	0.006138927	0.000257863
1281.06	0.00609517	0.00024993
1385.36	0.005477722	0.000399888
1401.56	0.005476668	0.000262902
1661.27	0.00421792	0.000210912
1847.34	0.00441477	0.000128057
2118.39	0.004030238	0.000133021
2447.44	0.003410649	0.000102341
121.66	0.02937796	0.000439337
147.85	0.019379746	0.005482228
244.59	0.020891142	0.000313724
251.43	0.031777264	0.001661968
295.81	0.016949723	0.000392544
344.2	0.016443296	0.00034651
367.72	0.019038234	0.000535524
411.09	0.014558584	0.000222913
488.7	0.012154913	0.000362921
678.67	0.009138418	0.00019522
778.96	0.008463411	0.000125928
867.44	0.007500943	0.000117233
964.09	0.00716195	0.000106543
1085.87	0.006886623	0.000102947
1112.1	0.006698576	0.000100836
1407.99	0.005563433	8.26202E-05
275.24	0.015676974	0.003653806
324.75	0.01412712	0.002006665
329.28	0.0167402	0.001494055
415.98	0.015360457	0.000565336
1249.91	0.006123574	0.000372126
1292.7	0.005412005	0.000609513
1299.12	0.005809641	9.64349E-05
1769.11	0.00584495	0.001020983
