*************************************************************************
*****        G A M M A   S P E C T R U M    A N A L Y S I S         *****
*************************************************************************


Filename: C:\GENIE2K\CAMFILES\Milan-Stefanik\Zalesakova\exp01_2022-02-0

Report Generated On             : 2/1/2022    3:21:51 PM

Sample Title                    : Sample title.                          
Sample Description              :                                 
Sample Identification           :                 
Sample Type                     :                 
Sample Geometry                 :                 

Peak Locate Threshold           :  3.00
Peak Locate Range (in channels) :     1 - 16384
Peak Area Range (in channels)   :     1 - 16384
Identification Energy Tolerance :    1.000 keV

Sample Size                     :  1.0000E+00 Unit    

Sample Taken On                 :                       
Acquisition Started             : 2/1/2022   11:08:00 AM

Live Time                       :      930.3 seconds
Real Time                       :      940.9 seconds

Dead Time                       :   1.12 %


              Energy Calibration Used Done On       : 12/13/2019
              Efficiency Calibration Used Done On   : ??????????
              Efficiency ID                         :                        

Peak Analysis Report                    2/1/2022    3:21:51 PM          Page **


*******************************************************************************
*****  S T A N D A R D   V M S   P E A K   A N A L Y S I S   R E P O R T  *****
*******************************************************************************

        Configuration Title:                                         
        Spectrum Title:              Sample title.            
        Peak Analysis Performed on:  2/1/22    3:21:51 PM
        Peak Analysis From Channel:      1    To Channel:    16384
        Peak Search Sensitivity:      3.00    Gaussian Sensitivity: 10.00
        Max Iterations: 10  Fit Singlets: No  Critical Level Test: Yes
        Use Fixed FWHM: No  FWHM Reject:  No  FWHM Reject Ratio:  0.00 
        Peak Fit Engine Name: PANOLIN1        Continuum Type: STEP   

   Pk IT  Energy      Area   Bkgnd  FWHM Channel  Left  PW  Cts/Sec  %err   Fit

    1  0   312.79      709    1797  1.14 1707.75  1697  22 7.62E-01  12.2   0.0
    2  0   511.12     1806    2414  2.57 2789.64  2774  31 1.94E+00   6.5   0.0
    3  0   846.98    61678    1458  1.57 4621.76  4604  35 6.63E+01   0.4   0.0
    4  0  1014.52      160     723  0.94 5535.67  5526  26 1.72E-01  35.6   0.0
    5  0  1132.52       97     481  0.43 6179.38  6172  16 1.04E-01  40.6   0.0
    6  0  1145.37      229     938  1.13 6249.48  6236  30 2.46E-01  30.0   0.0
    7  0  1293.72     1004    1093  2.08 7058.73  7045  31 1.08E+00   7.9   0.0
    8  0  1368.81     5145     990  1.84 7468.32  7449  36 5.53E+00   2.0   0.0
    9  0  1524.82    13118     739  1.93 8319.35  8300  40 1.41E+01   1.0   0.0
   10  0  1642.77     5628     685  1.96 8962.77  8944  39 6.05E+00   1.7   0.0
   11  0  1656.26      382     511  1.77 9036.37  9020  33 4.11E-01  14.3   0.0
   12  0  1732.06      308     319  1.36 9449.83  9435  29 3.31E-01  13.7   0.0
   13  0  1810.77     8105     635  2.04 9879.24  9863  38 8.71E+00   1.3   0.0
   14  0  1836.25      139     321  0.46 10018.1 10006  24 1.49E-01  27.1   0.0
   15  0  2113.07     3932     185  2.05 11528.2 11509  40 4.23E+00   1.8   0.0
   16  0  2167.40     6219     173  2.24 11824.6 11804  42 6.69E+00   1.4   0.0
   17  0  2242.81      436     194  1.79 12235.9 12218  39 4.68E-01   9.1   0.0
   18  0  2522.90      208     154  0.33 13763.8 13750  28 2.24E-01  14.4   0.0
   19  0  2657.32      522      72  2.02 14497.1 14480  34 5.61E-01   5.8   0.0
   20  0  2753.92     2742      22  2.19 15024.1 15002  44 2.95E+00   2.0   0.0
   21  0  2959.61      210      16  1.41 16146.1 16130  31 2.26E-01   8.1   0.0

M = First peak in a multiplet region
m = Other peak in a multiplet region
F = Fitted singlet

Errors quoted at  1.000 sigma
*************************************************************************
*****        G A M M A   S P E C T R U M    A N A L Y S I S         *****
*************************************************************************


Filename: C:\GENIE2K\CAMFILES\Milan-Stefanik\Zalesakova\exp02_2022-02-1

Report Generated On             : 2/14/2022   2:45:18 PM

Sample Title                    : Sample title.                          
Sample Description              :                                 
Sample Identification           :                 
Sample Type                     :                 
Sample Geometry                 :                 

Peak Locate Threshold           :  3.00
Peak Locate Range (in channels) :     1 - 16384
Peak Area Range (in channels)   :     1 - 16384
Identification Energy Tolerance :    1.000 keV

Sample Size                     :  1.0000E+00 Unit    

Sample Taken On                 :                       
Acquisition Started             : 2/14/2022  10:19:47 AM

Live Time                       :      223.9 seconds
Real Time                       :      225.6 seconds

Dead Time                       :   0.72 %


              Energy Calibration Used Done On       : 12/13/2019
              Efficiency Calibration Used Done On   : ??????????
              Efficiency ID                         :                        

Peak Analysis Report                    2/14/2022   2:45:19 PM          Page **


*******************************************************************************
*****  S T A N D A R D   V M S   P E A K   A N A L Y S I S   R E P O R T  *****
*******************************************************************************

        Configuration Title:                                         
        Spectrum Title:              Sample title.            
        Peak Analysis Performed on:  2/14/22   2:45:19 PM
        Peak Analysis From Channel:      1    To Channel:    16384
        Peak Search Sensitivity:      3.00    Gaussian Sensitivity: 10.00
        Max Iterations: 10  Fit Singlets: No  Critical Level Test: Yes
        Use Fixed FWHM: No  FWHM Reject:  No  FWHM Reject Ratio:  0.00 
        Peak Fit Engine Name: PANOLIN1        Continuum Type: STEP   

   Pk IT  Energy      Area   Bkgnd  FWHM Channel  Left  PW  Cts/Sec  %err   Fit

    1  0     6.75      329     385  0.87   38.32    30  15 1.47E+00  11.7   0.0
    2  0   312.79      122     197  1.04 1707.72  1699  18 5.43E-01  22.7   0.0
    3  0   319.93      122     228  0.70 1746.67  1733  24 5.43E-01  26.5   0.0
    4  0   511.04      231     328  1.06 2789.20  2779  25 1.03E+00  17.2   0.0
    5  0   847.05     8736     373  1.58 4622.12  4606  33 3.90E+01   1.2   0.0
    6  0  1014.72       59      72  0.69 5536.75  5529  17 2.65E-01  28.5   0.0
    7  0  1171.09       28      56  0.85 6389.75  6382  16 1.26E-01  49.5   0.0
    8  0  1293.80      160     139  0.37 7059.14  7048  27 7.16E-01  17.3   0.0
    9  0  1368.96      598     150  1.40 7469.14  7456  28 2.67E+00   6.0   0.0
   10  0  1524.96     1643      91  1.82 8320.11  8306  33 7.34E+00   2.8   0.0
   11  0  1642.84     1120      85  1.74 8963.17  8946  34 5.00E+00   3.5   0.0
   12  0  1656.57       52      70  0.27 9038.04  9030  18 2.33E-01  32.1   0.0
   13  0  1732.12       21      41  0.28 9450.19  9442  18 9.28E-02  60.6   0.0
   14  0  1810.89     1106      97  1.96 9879.87  9864  35 4.94E+00   3.7   0.0
   15  0  2113.21      579      24  1.93 11529.0 11513  34 2.59E+00   4.6   0.0
   16  0  2167.55     1185      34  1.83 11825.4 11806  39 5.29E+00   3.1   0.0
   17  0  2657.51       68      15  1.00 14498.1 14489  20 3.05E-01  16.0   0.0
   18  0  2754.02      384      12  2.29 15024.6 15009  31 1.72E+00   5.5   0.0
   19  0  2960.01       37       7  0.23 16148.2 16139  20 1.64E-01  21.5   0.0

M = First peak in a multiplet region
m = Other peak in a multiplet region
F = Fitted singlet

Errors quoted at  1.000 sigma
