*************************************************************************
*****        G A M M A   S P E C T R U M    A N A L Y S I S         *****
*************************************************************************


Filename: C:\GENIE2K\CAMFILES\Milan-Stefanik\Zalesakova\exp01_2022-02-0

Report Generated On             : 1.2.2022   15:27:16   

Sample Title                    : UcKalEu_20210708                       
Sample Description              :                                 
Sample Identification           : 1               
Sample Type                     : 0               
Sample Geometry                 : 30              

Peak Locate Threshold           :  3.00
Peak Locate Range (in channels) :     1 - 16384
Peak Area Range (in channels)   :     1 - 16384
Identification Energy Tolerance :    1.000 keV

Sample Size                     :  1.000E+000 nuclei  

Sample Taken On                 : 9.2.2021   15:15:00   
Acquisition Started             : 1.2.2022   10:54:45   

Live Time                       :      741.1 seconds
Real Time                       :      747.6 seconds

Dead Time                       :   0.87 %


              Energy Calibration Used Done On       : 29.3.2017 
              Efficiency Calibration Used Done On   : 1.11.2011 
              Efficiency ID                         : 4pi MBSS1 858-01       

Peak Analysis Report                    1.2.2022   15:27:16             Page **


*******************************************************************************
*****  S T A N D A R D   V M S   P E A K   A N A L Y S I S   R E P O R T  *****
*******************************************************************************

        Configuration Title:                                         
        Spectrum Title:              UcKalEu_20210708         
        Peak Analysis Performed on:  1.2.22   15:27:16   
        Peak Analysis From Channel:      1    To Channel:    16384
        Peak Search Sensitivity:      3.00    Gaussian Sensitivity: 10.00
        Max Iterations: 10  Fit Singlets: No  Critical Level Test: Yes
        Use Fixed FWHM: No  FWHM Reject:  No  FWHM Reject Ratio:  0.00 
        Peak Fit Engine Name: PANOLIN1        Continuum Type: STEP   

   Pk IT  Energy      Area   Bkgnd  FWHM Channel  Left  PW  Cts/Sec  %err   Fit

    1  0    25.27      368     393  0.60  143.59   140  11 5.0E-001  10.6   0.0
    2  0   313.12      451     597  1.04 1771.48  1764  19 6.1E-001  11.1   0.0
    3  0   502.67       90     485  0.42 2843.44  2833  21 1.2E-001  47.6   0.0
    4  0   511.02      443     885  1.35 2890.67  2876  32 6.0E-001  15.7   0.0
    5  0   846.60     8987     901  1.59 4788.46  4775  33 1.2E+001   1.3   0.0
    6  0  1013.91      271     463  0.98 5734.62  5720  34 3.7E-001  19.2   0.0
    7  0  1145.56      153     418  0.26 6479.15  6469  22 2.1E-001  27.3   0.0
    8  0  1234.72       53     296  0.44 6983.34  6975  19 7.1E-002  61.6   0.0
    9  0  1293.64      698     690  1.97 7316.58  7300  34 9.4E-001   9.4   0.0
   10  0  1368.81     2645     506  2.03 7741.67  7724  37 3.6E+000   2.8   0.0
   11  0  1525.12     6910     289  1.94 8625.65  8605  43 9.3E+000   1.4   0.0
   12  0  1643.30     2528     176  2.06 9294.00  9273  43 3.4E+000   2.4   0.0
   13  0  1657.11      125     162  0.42 9372.08  9362  23 1.7E-001  21.9   0.0
   14  0  1732.72      189     185  1.09 9799.69  9786  31 2.5E-001  17.5   0.0
   15  0  1811.59     1210     199  2.08 10245.7 10228  37 1.6E+000   4.0   0.0
   16  0  1837.36       55      86  0.64 10391.4 10382  20 7.5E-002  34.2   0.0
   17  0  2004.01       40      47  0.41 11333.8 11324  20 5.3E-002  36.2   0.0
   18  0  2114.32      516      90  1.61 11957.7 11942  33 7.0E-001   6.1   0.0
   19  0  2168.83     2672      88  2.32 12266.0 12242  47 3.6E+000   2.1   0.0
   20  0  2244.58      147     117  0.84 12694.4 12680  32 2.0E-001  18.4   0.0
   21  0  2756.33     1331      25  2.20 15588.4 15563  48 1.8E+000   2.9   0.0

M = First peak in a multiplet region
m = Other peak in a multiplet region
F = Fitted singlet

Errors quoted at  1.000 sigma
