*************************************************************************
*****        G A M M A   S P E C T R U M    A N A L Y S I S         *****
*************************************************************************


Filename: C:\GENIE2K\CAMFILES\Milan-Stefanik\Zalesakova\exp01_2022-02-0

Report Generated On             : 1.2.2022   15:27:38   

Sample Title                    : UcKalEu_20210708                       
Sample Description              :                                 
Sample Identification           : 1               
Sample Type                     : 0               
Sample Geometry                 : 30              

Peak Locate Threshold           :  3.00
Peak Locate Range (in channels) :     1 - 16384
Peak Area Range (in channels)   :     1 - 16384
Identification Energy Tolerance :    1.000 keV

Sample Size                     :  1.000E+000 nuclei  

Sample Taken On                 : 9.2.2021   15:15:00   
Acquisition Started             : 1.2.2022   11:49:29   

Live Time                       :      308.1 seconds
Real Time                       :      316.3 seconds

Dead Time                       :   2.58 %


              Energy Calibration Used Done On       : 29.3.2017 
              Efficiency Calibration Used Done On   : 1.11.2011 
              Efficiency ID                         : 4pi MBSS1 858-01       

Peak Analysis Report                    1.2.2022   15:27:38             Page **


*******************************************************************************
*****  S T A N D A R D   V M S   P E A K   A N A L Y S I S   R E P O R T  *****
*******************************************************************************

        Configuration Title:                                         
        Spectrum Title:              UcKalEu_20210708         
        Peak Analysis Performed on:  1.2.22   15:27:38   
        Peak Analysis From Channel:      1    To Channel:    16384
        Peak Search Sensitivity:      3.00    Gaussian Sensitivity: 10.00
        Max Iterations: 10  Fit Singlets: No  Critical Level Test: Yes
        Use Fixed FWHM: No  FWHM Reject:  No  FWHM Reject Ratio:  0.00 
        Peak Fit Engine Name: PANOLIN1        Continuum Type: STEP   

   Pk IT  Energy      Area   Bkgnd  FWHM Channel  Left  PW  Cts/Sec  %err   Fit

    1  0    75.23      131     881  0.28  426.11   422  12 4.2E-001  37.1   0.0
    2  0   313.06      269     720  0.58 1771.13  1762  22 8.7E-001  20.3   0.0
    3  0   511.25     1125     886  2.51 2891.92  2875  34 3.7E+000   6.8   0.0
    4  0   554.64      167     503  0.25 3137.32  3127  24 5.4E-001  28.0   0.0
    5  0   616.89      522     762  1.12 3489.36  3477  24 1.7E+000  11.4   0.0
    6  0   776.44      121     460  0.71 4391.65  4384  25 3.9E-001  37.3   0.0
    7  0   846.64     4491     891  1.68 4788.69  4769  38 1.5E+001   2.2   0.0
    8  0  1145.13      362     715  1.26 6476.68  6464  28 1.2E+000  16.6   0.0
    9  0  1293.78      520     807  1.14 7317.36  7300  36 1.7E+000  13.5   0.0
   10  0  1368.86      583     641  1.54 7741.97  7727  35 1.9E+000  10.9   0.0
   11  0  1434.35     6136     600  2.00 8112.35  8092  40 2.0E+001   1.6   0.0
   12  0  1525.15     4361     574  2.03 8625.81  8585  62 1.4E+001   2.3   0.0
   13  0  1643.32     6007     400  2.04 9294.09  9273  43 1.9E+001   1.5   0.0
   14  0  1656.89      427     295  0.32 9370.87  9355  36 1.4E+000  10.6   0.0
   15  0  1779.93      107     165  1.19 10066.6 10057  21 3.5E-001  24.8   0.0
   16  0  1811.51      507     338  1.80 10245.2 10228  36 1.6E+000   9.6   0.0
   17  0  2114.50      269      51  1.59 11958.7 11942  31 8.7E-001   8.4   0.0
   18  0  2168.85     6109     137  2.43 12266.1 12241  50 2.0E+001   1.4   0.0
   19  0  2756.35      226      32  1.84 15588.6 15573  32 7.3E-001   8.8   0.0

M = First peak in a multiplet region
m = Other peak in a multiplet region
F = Fitted singlet

Errors quoted at  1.000 sigma
