*************************************************************************
*****        G A M M A   S P E C T R U M    A N A L Y S I S         *****
*************************************************************************


Filename: C:\GENIE2K\CAMFILES\Milan-Stefanik\Zalesakova\Kalibracia\p80m

Report Generated On             : 11/30/2021 11:35:40 AM

Sample Title                    : Sample title.                          
Sample Description              :                                 
Sample Identification           :                 
Sample Type                     :                 
Sample Geometry                 :                 

Peak Locate Threshold           :  3.00
Peak Locate Range (in channels) :     1 - 16384
Peak Area Range (in channels)   :     1 - 16384
Identification Energy Tolerance :    1.000 keV

Sample Size                     :  1.0000E+00 Unit    

Sample Taken On                 :                       
Acquisition Started             : 11/30/2021 11:19:00 AM

Live Time                       :      621.9 seconds
Real Time                       :      776.4 seconds

Dead Time                       :  19.90 %


              Energy Calibration Used Done On       : 11/23/2021
              Efficiency Calibration Used Done On   : ??????????
              Efficiency ID                         :                        

Peak Analysis Report                    11/30/2021 11:35:40 AM          Page **


*******************************************************************************
*****  S T A N D A R D   V M S   P E A K   A N A L Y S I S   R E P O R T  *****
*******************************************************************************

        Configuration Title:                                         
        Spectrum Title:              Sample title.            
        Peak Analysis Performed on:  11/30/21 11:35:40 AM
        Peak Analysis From Channel:      1    To Channel:    16384
        Peak Search Sensitivity:      3.00    Gaussian Sensitivity: 10.00
        Max Iterations: 10  Fit Singlets: No  Critical Level Test: Yes
        Use Fixed FWHM: No  FWHM Reject:  No  FWHM Reject Ratio:  0.00 
        Peak Fit Engine Name: PANOLIN1        Continuum Type: STEP   

   Pk IT  Energy      Area   Bkgnd  FWHM Channel  Left  PW  Cts/Sec  %err   Fit

    1  0    74.75      501   17543  0.79  409.21   404  11 8.06E-01  41.1   0.0
    2  0   310.45     1436   32979  1.24 1694.98  1687  19 2.31E+00  23.4   0.0
    3  0   349.64      454   23744  0.43 1908.76  1902  17 7.30E-01  60.2   0.0
 M  4 10   509.79      828   19059  1.49 2782.37  2775  30 1.33E+00  47.2   1.0
 m  5 10   511.25     5983   28615  2.16 2790.35  2775  30 9.62E+00   7.6   1.0
 M  6 22   819.36      456   26947  1.79 4471.10  4462  34 7.33E-01  34.0   1.0
 m  7 22   821.53     1962   31662  1.79 4482.94  4462  34 3.16E+00  10.2   1.0
    8  0   971.35      731   24036  0.86 5300.21  5291  18 1.17E+00  38.5   0.0
 M  9 12  1173.25   840889   18725  1.69 6401.55  6383  60 1.35E+03   0.1   1.8
 m 10 12  1175.18     6111   17426  1.70 6412.06  6383  60 9.83E+00   7.2   1.8
 m 11 12  1177.25     1677   17773  1.70 6423.39  6383  60 2.70E+00   8.0   1.8
 M 12 12  1332.50   762840    6835  1.77 7270.25  7251  57 1.23E+03   0.1   2.2
 m 13 12  1334.35     5313    6952  1.77 7280.37  7251  57 8.54E+00   9.9   2.2
 m 14 12  1336.73     1150    7017  1.78 7293.33  7251  57 1.85E+00   7.4   2.2
   15  0  1686.52       71     365  0.18 9201.41  9192  22 1.14E-01  53.5   0.0
   16  0  1871.81       69     184  0.21 10212.1 10204  19 1.10E-01  38.4   0.0
   17  0  2345.80      555     244  2.21 12797.8 12778  39 8.92E-01   8.0   0.0
   18  0  2505.26     3414     221  2.23 13667.6 13647  43 5.49E+00   2.0   0.0
   19  0  2664.42      507      29  1.94 14535.8 14514  39 8.15E-01   5.1   0.0

M = First peak in a multiplet region
m = Other peak in a multiplet region
F = Fitted singlet

Errors quoted at  1.000 sigma
