*************************************************************************
*****        G A M M A   S P E C T R U M    A N A L Y S I S         *****
*************************************************************************


Filename: C:\GENIE2K\CAMFILES\Milan-Stefanik\Zalesakova\exp01_2022-02-0

Report Generated On             : 2/1/2022    3:22:41 PM

Sample Title                    : Sample title.                          
Sample Description              :                                 
Sample Identification           :                 
Sample Type                     :                 
Sample Geometry                 :                 

Peak Locate Threshold           :  3.00
Peak Locate Range (in channels) :     1 - 16384
Peak Area Range (in channels)   :     1 - 16384
Identification Energy Tolerance :    1.000 keV

Sample Size                     :  1.0000E+00 Unit    

Sample Taken On                 :                       
Acquisition Started             : 2/1/2022    2:31:26 PM

Live Time                       :     2770.1 seconds
Real Time                       :     2791.2 seconds

Dead Time                       :   0.75 %


              Energy Calibration Used Done On       : 12/13/2019
              Efficiency Calibration Used Done On   : ??????????
              Efficiency ID                         :                        

Peak Analysis Report                    2/1/2022    3:22:42 PM          Page **


*******************************************************************************
*****  S T A N D A R D   V M S   P E A K   A N A L Y S I S   R E P O R T  *****
*******************************************************************************

        Configuration Title:                                         
        Spectrum Title:              Sample title.            
        Peak Analysis Performed on:  2/1/22    3:22:42 PM
        Peak Analysis From Channel:      1    To Channel:    16384
        Peak Search Sensitivity:      3.00    Gaussian Sensitivity: 10.00
        Max Iterations: 10  Fit Singlets: No  Critical Level Test: Yes
        Use Fixed FWHM: No  FWHM Reject:  No  FWHM Reject Ratio:  0.00 
        Peak Fit Engine Name: PANOLIN1        Continuum Type: STEP   

   Pk IT  Energy      Area   Bkgnd  FWHM Channel  Left  PW  Cts/Sec  %err   Fit

    1  0   127.43      362    4391  1.09  696.59   691  17 1.31E-01  32.8   0.0
    2  0   312.82     3341    3562  1.43 1707.88  1694  26 1.21E+00   4.1   0.0
    3  0   502.97      563    2467  1.55 2745.16  2730  26 2.03E-01  18.7   0.0
    4  0   511.19     6585    3406  2.70 2790.02  2775  30 2.38E+00   2.3   0.0
    5  0   554.54      846    2344  1.05 3026.49  3014  25 3.05E-01  12.1   0.0
 M  6  6   616.95      327    2501  1.61 3366.91  3356  35 1.18E-01  13.8   0.9
 m  7  6   619.53      403    2450  1.61 3381.02  3356  35 1.45E-01  11.8   0.9
    8  0   698.60      286    1642  0.46 3812.32  3804  21 1.03E-01  27.7   0.0
    9  0   776.72      678    1903  1.48 4238.49  4230  25 2.45E-01  13.7   0.0
   10  0   828.19      289    1588  0.41 4519.23  4512  21 1.04E-01  26.9   0.0
   11  0   846.99    22216    2863  1.56 4621.82  4605  34 8.02E+00   0.9   0.0
   12  0   899.51      300    2207  1.10 4908.31  4894  29 1.08E-01  34.2   0.0
   13  0  1013.99      808    3076  2.07 5532.76  5515  34 2.92E-01  16.1   0.0
   14  0  1044.20      189    2078  0.52 5697.56  5689  22 6.81E-02  47.4   0.0
   15  0  1293.66      326    2268  0.23 7058.39  7048  22 1.18E-01  28.9   0.0
   16  0  1368.82    46760    2282  1.84 7468.40  7450  38 1.69E+01   0.5   0.0
   17  0  1524.86    61562    1128  1.91 8319.57  8299  41 2.22E+01   0.4   0.0
   18  0  1642.82     4492     703  1.98 8963.03  8944  38 1.62E+00   2.1   0.0
   19  0  1672.44       74     285  0.50 9124.63  9116  18 2.66E-02  43.0   0.0
   20  0  1732.18     2171     754  2.07 9450.50  9434  32 7.84E-01   3.5   0.0
   21  0  1810.78     3019     808  2.00 9879.26  9860  41 1.09E+00   3.0   0.0
   22  0  2113.14     1227     772  2.10 11528.6 11509  37 4.43E-01   6.1   0.0
   23  0  2149.90       60     304  0.25 11729.1 11721  18 2.18E-02  53.7   0.0
   24  0  2167.42     4749     851  2.02 11824.7 11808  39 1.71E+00   2.1   0.0
   25  0  2243.08     3578    1187  2.50 12237.4 12214  47 1.29E+00   3.0   0.0
   26  0  2657.40      231     170  1.83 14497.6 14484  29 8.35E-02  13.8   0.0
   27  0  2753.93    25059     281  2.38 15024.1 14999  50 9.05E+00   0.7   0.0
   28  0  2959.74       83      50  0.82 16146.8 16137  21 3.01E-02  19.5   0.0

M = First peak in a multiplet region
m = Other peak in a multiplet region
F = Fitted singlet

Errors quoted at  1.000 sigma
