*************************************************************************
*****        G A M M A   S P E C T R U M    A N A L Y S I S         *****
*************************************************************************


Filename: C:\GENIE2K\CAMFILES\Milan-Stefanik\Zalesakova\exp01_2022-02-0

Report Generated On             : 2/3/2022   11:27:37 AM

Sample Title                    : Sample title.                          
Sample Description              :                                 
Sample Identification           :                 
Sample Type                     :                 
Sample Geometry                 :                 

Peak Locate Threshold           :  3.00
Peak Locate Range (in channels) :     1 - 16384
Peak Area Range (in channels)   :     1 - 16384
Identification Energy Tolerance :    1.000 keV

Sample Size                     :  1.0000E+00 Unit    

Sample Taken On                 :                       
Acquisition Started             : 2/3/2022    8:41:44 AM

Live Time                       :     9921.7 seconds
Real Time                       :     9929.7 seconds

Dead Time                       :   0.08 %


              Energy Calibration Used Done On       : 12/13/2019
              Efficiency Calibration Used Done On   : ??????????
              Efficiency ID                         :                        

Peak Analysis Report                    2/3/2022   11:27:37 AM          Page **


*******************************************************************************
*****  S T A N D A R D   V M S   P E A K   A N A L Y S I S   R E P O R T  *****
*******************************************************************************

        Configuration Title:                                         
        Spectrum Title:              Sample title.            
        Peak Analysis Performed on:  2/3/22   11:27:37 AM
        Peak Analysis From Channel:      1    To Channel:    16384
        Peak Search Sensitivity:      3.00    Gaussian Sensitivity: 10.00
        Max Iterations: 10  Fit Singlets: No  Critical Level Test: Yes
        Use Fixed FWHM: No  FWHM Reject:  No  FWHM Reject Ratio:  0.00 
        Peak Fit Engine Name: PANOLIN1        Continuum Type: STEP   

   Pk IT  Energy      Area   Bkgnd  FWHM Channel  Left  PW  Cts/Sec  %err   Fit

    1  0     1.92      202      71  0.45   11.96     5  15 2.04E-02  10.1   0.0
    2  0     5.95     1774    1876  1.34   33.94    25  18 1.79E-01   5.0   0.0
    3  0    77.40      117     774  0.91  423.67   418  11 1.18E-02  37.9   0.0
    4  0   312.87     1023     705  1.20 1708.20  1696  26 1.03E-01   6.2   0.0
    5  0   438.74      147     360  0.44 2394.79  2384  19 1.48E-02  25.2   0.0
    6  0   502.93       70     311  0.48 2744.95  2739  14 7.02E-03  43.7   0.0
    7  0   511.16     1682     706  2.51 2789.86  2775  30 1.70E-01   4.2   0.0
    8  0   661.83      147     387  0.45 3611.75  3599  23 1.48E-02  27.6   0.0
    9  0  1368.81     8012     441  1.81 7468.32  7451  37 8.08E-01   1.3   0.0
   10  0  1524.86    17400     236  1.83 8319.56  8299  41 1.75E+00   0.8   0.0
   11  0  1732.11      408      72  1.32 9450.15  9434  32 4.12E-02   6.8   0.0
   12  0  1960.46       25      25  0.22 10695.7 10687  18 2.55E-03  40.7   0.0
   13  0  2242.98      746     115  3.00 12236.8 12214  46 7.52E-02   5.2   0.0
   14  0  2753.98     4322      59  2.51 15024.4 15001  48 4.36E-01   1.6   0.0

M = First peak in a multiplet region
m = Other peak in a multiplet region
F = Fitted singlet

Errors quoted at  1.000 sigma
